<?xml version="1.0" encoding="utf-8"?>
<!-- Generator: Adobe Illustrator 19.0.0, SVG Export Plug-In . SVG Version: 6.00 Build 0)  -->
<svg version="1.1" id="Layer_1" xmlns="http://www.w3.org/2000/svg" xmlns:xlink="http://www.w3.org/1999/xlink" x="0px" y="0px"
	 viewBox="0 0 207.2 127.7" style="enable-background:new 0 0 207.2 127.7;" xml:space="preserve">
<style type="text/css">
	.st0{fill:#FFFFFF;}
</style>
<g id="XMLID_34_">
	<path id="XMLID_35_" class="st0" d="M2,126.4c0.3-0.3,0.5-0.9,0.5-1.9V113c0-1-0.1-1.6-0.5-1.9c-0.3-0.3-1-0.4-2-0.5v-0.5h7.7v0.5
		c-1,0-1.8,0.2-2,0.5c-0.3,0.3-0.4,0.9-0.5,1.9v11.6c0,1,0.1,1.6,0.5,1.9c0.3,0.2,1,0.4,2,0.4v0.5H0v-0.5
		C1.1,126.8,1.8,126.7,2,126.4z"/>
	<path id="XMLID_38_" class="st0" d="M11.5,126c0.4-0.3,0.6-1.2,0.6-2.6v-16.6c0-1.3-0.2-2.2-0.6-2.6c-0.4-0.4-1.3-0.6-2.7-0.7v-0.7
		h10.1c3.4,0,6.2,0.6,8.6,1.7c4.2,2,6.3,5.6,6.3,10.7c0,1.9-0.4,3.6-1.2,5.3c-0.7,1.7-1.9,3.1-3.4,4.2c-0.9,0.7-1.9,1.3-3,1.7
		c-1.9,0.7-4.2,1-7,1H8.9v-0.7C10.2,126.6,11.1,126.3,11.5,126z M18.2,126c2.9,0,5.3-0.6,7.2-1.7c2.9-1.8,4.3-4.8,4.3-9.1
		c0-3.8-1.2-6.7-3.6-8.6c-2-1.6-4.7-2.5-8.1-2.5c-0.8,0-1.4,0.1-1.7,0.3c-0.3,0.2-0.4,0.6-0.4,1.2v18.9c0,0.6,0.1,1,0.4,1.2
		S17.3,126,18.2,126z"/>
	<path id="XMLID_41_" class="st0" d="M37.3,126.4c0.3-0.3,0.4-0.9,0.4-1.9V113c0-0.9-0.1-1.5-0.4-1.8c-0.3-0.3-0.9-0.4-1.9-0.5v-0.5
		h13.9l0.1,3.7h-0.7c-0.2-1.2-0.5-1.9-1-2.2c-0.4-0.3-1.4-0.5-3-0.5h-3.5c-0.4,0-0.6,0.1-0.7,0.2c-0.1,0.1-0.1,0.3-0.1,0.7v5.8h4
		c1.1,0,1.8-0.1,2.1-0.5c0.3-0.3,0.5-1,0.7-2h0.6v6h-0.6c-0.2-1-0.4-1.7-0.7-2c-0.3-0.3-1-0.5-2.1-0.5h-4v6.4c0,0.5,0.1,0.8,0.5,0.9
		c0.3,0.1,1.3,0.1,2.9,0.1c1.8,0,3.1-0.2,3.9-0.6c0.8-0.4,1.6-1.3,2.2-2.8h0.7l-1.2,4.4H35.5v-0.5C36.4,126.8,37,126.6,37.3,126.4z"
		/>
	<path id="XMLID_43_" class="st0" d="M51.5,126.9c0.7-0.1,1.2-0.3,1.5-0.7c0.3-0.4,0.9-1.6,1.7-3.5l5.4-12.8h0.5l6.5,14.7
		c0.4,1,0.8,1.6,1,1.9c0.3,0.2,0.7,0.4,1.3,0.4v0.5h-6.6v-0.5c0.7,0,1.2-0.1,1.5-0.2c0.2-0.1,0.3-0.3,0.3-0.7c0-0.1,0-0.3-0.1-0.7
		c-0.1-0.3-0.2-0.6-0.3-1l-1.1-2.5h-6.8c-0.7,1.7-1.1,2.7-1.2,3.1c-0.1,0.3-0.2,0.7-0.2,0.9c0,0.4,0.2,0.7,0.6,0.9
		c0.2,0.1,0.6,0.2,1.2,0.2v0.5h-5.2V126.9z M59.7,113.5l-3,7.2h6L59.7,113.5z"/>
	<path id="XMLID_46_" class="st0" d="M72.1,126.4c0.3-0.3,0.4-0.9,0.4-1.9V113c0-0.9-0.1-1.5-0.4-1.8c-0.3-0.3-0.9-0.4-1.9-0.5v-0.5
		h7.4v0.5c-1,0-1.6,0.2-1.9,0.4c-0.3,0.3-0.5,0.8-0.5,1.7v12.5c0,0.3,0,0.5,0.1,0.7c0.1,0.1,0.3,0.3,0.6,0.3c0.2,0,0.4,0,0.6,0
		c0.2,0,0.6,0,1.2,0c2.3,0,3.9-0.2,4.7-0.6c0.8-0.4,1.6-1.4,2.4-2.9h0.6l-1.3,4.5h-14v-0.5C71.2,126.8,71.8,126.6,72.1,126.4z"/>
	<path id="XMLID_48_" class="st0" d="M96.3,126c0.4-0.3,0.6-1.2,0.6-2.6v-16.6c0-1.3-0.2-2.2-0.6-2.6c-0.4-0.4-1.3-0.6-2.7-0.7v-0.7
		h10.5v0.7c-1.4,0.1-2.3,0.3-2.8,0.7c-0.4,0.4-0.7,1.2-0.7,2.4v17.9c0,0.4,0.1,0.7,0.2,1c0.1,0.2,0.4,0.4,0.9,0.4
		c0.3,0,0.6,0.1,0.9,0.1c0.3,0,0.9,0,1.7,0c3.3,0,5.5-0.3,6.7-0.8c1.2-0.6,2.3-1.9,3.4-4.2h0.9l-1.8,6.4h-20v-0.7
		C95,126.6,95.8,126.3,96.3,126z"/>
	<path id="XMLID_50_" class="st0" d="M116.3,126.9c0.7-0.1,1.2-0.3,1.5-0.7c0.3-0.4,0.9-1.6,1.7-3.5l5.4-12.8h0.5l6.5,14.7
		c0.4,1,0.8,1.6,1,1.9c0.3,0.2,0.7,0.4,1.3,0.4v0.5h-6.6v-0.5c0.7,0,1.2-0.1,1.5-0.2c0.2-0.1,0.3-0.3,0.3-0.7c0-0.1,0-0.3-0.1-0.7
		c-0.1-0.3-0.2-0.6-0.3-1l-1.1-2.5h-6.8c-0.7,1.7-1.1,2.7-1.2,3.1c-0.1,0.3-0.2,0.7-0.2,0.9c0,0.4,0.2,0.7,0.6,0.9
		c0.2,0.1,0.6,0.2,1.2,0.2v0.5h-5.2V126.9z M124.5,113.5l-3,7.2h6L124.5,113.5z"/>
	<path id="XMLID_53_" class="st0" d="M137.2,110.6c-0.5,0-0.9,0-1.1,0.1c-0.4,0.1-0.6,0.4-0.6,0.8c0,0.1,0,0.3,0.1,0.5
		c0,0.1,0.1,0.4,0.2,0.6l3.8,9.8l2.8-7.4l-1.3-3.1c-0.2-0.6-0.6-0.9-1-1.2c-0.3-0.1-0.7-0.2-1.2-0.2v-0.5h7v0.5
		c-0.7,0-1.1,0-1.3,0.1c-0.4,0.1-0.6,0.4-0.6,0.9c0,0.1,0,0.3,0,0.4c0,0.1,0.1,0.3,0.3,0.7l3.8,9.8l3.3-8.9c0.1-0.5,0.3-0.9,0.4-1.3
		c0-0.2,0-0.4,0.1-0.5c0-0.5-0.2-0.8-0.7-1c-0.3-0.1-0.6-0.1-1.2-0.2v-0.5h5.2v0.5c-0.4,0.1-0.8,0.1-1,0.3c-0.4,0.2-0.8,0.6-1,1.3
		l-2.8,7.7l-1.1,3l-1.6,4.7h-0.4l-1-3l-3.1-8l-4,11h-0.4l-1.9-5.4l-2.2-6.1c-0.9-2.5-1.5-4.1-1.9-4.6c-0.3-0.6-0.9-0.9-1.7-0.9v-0.5
		h6.4V110.6z"/>
	<path id="XMLID_55_" class="st0" d="M163.2,110.6c-0.6,0-1,0-1.4,0.1c-0.3,0.1-0.4,0.3-0.4,0.7c0,0.1,0,0.2,0.1,0.4
		c0.1,0.1,0.1,0.4,0.3,0.7l3.9,5.8l3.7-5.9c0.1-0.2,0.3-0.4,0.3-0.6c0.1-0.1,0.1-0.3,0.1-0.4c0-0.4-0.2-0.6-0.6-0.7
		c-0.2-0.1-0.6-0.1-1.2-0.1v-0.5h5.7v0.5c-0.5,0-1,0.2-1.4,0.4c-0.6,0.5-1.4,1.3-2.2,2.5l-3.8,5.9v5.1c0,1,0.1,1.6,0.5,1.9
		c0.3,0.2,1,0.4,2.2,0.4v0.5h-8v-0.5c1.2,0,1.9-0.2,2.2-0.5c0.3-0.3,0.4-1,0.4-2.1v-4.5l-3.4-5c-1.2-1.7-2-2.8-2.5-3.3
		c-0.5-0.5-1-0.7-1.7-0.8v-0.5h7.3V110.6z"/>
	<path id="XMLID_57_" class="st0" d="M176.3,126.4c0.3-0.3,0.4-0.9,0.4-1.9V113c0-0.9-0.1-1.5-0.4-1.8c-0.3-0.3-0.9-0.4-1.9-0.5
		v-0.5h13.9l0.1,3.7h-0.7c-0.2-1.2-0.5-1.9-1-2.2c-0.4-0.3-1.4-0.5-3-0.5h-3.5c-0.4,0-0.6,0.1-0.7,0.2c-0.1,0.1-0.1,0.3-0.1,0.7v5.8
		h4c1.1,0,1.8-0.1,2.1-0.5c0.3-0.3,0.5-1,0.7-2h0.6v6h-0.6c-0.2-1-0.4-1.7-0.7-2c-0.3-0.3-1-0.5-2.1-0.5h-4v6.4
		c0,0.5,0.1,0.8,0.5,0.9c0.3,0.1,1.3,0.1,2.9,0.1c1.8,0,3.1-0.2,3.9-0.6c0.8-0.4,1.6-1.3,2.2-2.8h0.7l-1.2,4.4h-14.1v-0.5
		C175.4,126.8,176,126.6,176.3,126.4z"/>
	<path id="XMLID_59_" class="st0" d="M192.3,126.3c0.2-0.3,0.4-1,0.4-2.1V113c0-0.9-0.1-1.5-0.4-1.8c-0.3-0.3-0.9-0.4-1.8-0.5v-0.5
		h7.2c1.5,0,2.7,0.2,3.7,0.6c1.9,0.7,2.9,2,2.9,4c0,1.3-0.4,2.3-1.3,3c-0.9,0.7-2,1.2-3.5,1.3l5.4,6.6c0.3,0.4,0.7,0.7,1,0.9
		c0.3,0.1,0.8,0.3,1.3,0.3v0.5h-4.2l-6.2-8l-1.5,0.1v5.1c0,1,0.1,1.6,0.4,1.9c0.3,0.2,0.9,0.4,1.9,0.5v0.5h-7.2v-0.5
		C191.4,126.8,192,126.6,192.3,126.3z M201.4,114.7c0-1.5-0.6-2.6-1.9-3.1c-0.7-0.3-1.6-0.4-2.6-0.5c-0.7,0-1.2,0.1-1.3,0.2
		c-0.1,0.1-0.2,0.3-0.3,0.7v6.4c1.9,0,3.2-0.3,4-0.6C200.7,117.3,201.3,116.2,201.4,114.7z"/>
</g>
<g id="XMLID_2_">
	
		<image style="overflow:visible;opacity:0.1;" width="402" height="402" id="XMLID_25_" xlink:href="F5F998B3.png"  transform="matrix(0.24 0 0 0.24 55.3808 0)">
	</image>
	<g id="XMLID_13_">
		<path id="XMLID_24_" class="st0" d="M121.8,71.4H85.4c-6.6,0-12-5.4-12-12V23c0-6.6,5.4-12,12-12h36.4c6.6,0,12,5.4,12,12v36.4
			C133.8,66,128.4,71.4,121.8,71.4z"/>
	</g>
</g>
<g id="XMLID_18_">
	<path id="XMLID_19_" d="M93.3,19.9l-15,11.3L88.5,33l-4.3,4l18.1,28.3C102.2,65.3,90.6,23.7,93.3,19.9z"/>
	<path id="XMLID_22_" d="M113.9,19.9l15,11.3L118.7,33l4.3,4l-18.1,28.3C104.9,65.3,116.5,23.7,113.9,19.9z"/>
	<path id="XMLID_23_" d="M96.3,17.1c0,0-2.1,2.7,0.9,12.2c0,0,2.8-6,6.3-6.5L96.3,17.1z"/>
	<path id="XMLID_28_" d="M110.7,17.1c0,0,2.1,2.7-0.9,12.2c0,0-2.8-6-6.3-6.5L110.7,17.1z"/>
	<polygon id="XMLID_20_" points="101.2,22.4 97.7,36.5 101.7,36.5 103.8,22.4 	"/>
	<polygon id="XMLID_36_" points="105.9,22.4 109.4,36.5 105.4,36.5 103.2,22.4 	"/>
</g>
</svg>
